module codeberg.org/seizeheures/smtporter

go 1.21

require (
	github.com/charmbracelet/log v0.2.5
	github.com/go-chi/chi/v5 v5.0.10
	github.com/mhale/smtpd v0.8.0
	github.com/oklog/ulid v1.3.1
	go.etcd.io/bbolt v1.3.7
)

require (
	github.com/aymanbagabas/go-osc52/v2 v2.0.1 // indirect
	github.com/charmbracelet/lipgloss v0.8.0 // indirect
	github.com/go-logfmt/logfmt v0.6.0 // indirect
	github.com/lucasb-eyer/go-colorful v1.2.0 // indirect
	github.com/mattn/go-isatty v0.0.18 // indirect
	github.com/mattn/go-runewidth v0.0.14 // indirect
	github.com/muesli/reflow v0.3.0 // indirect
	github.com/muesli/termenv v0.15.2 // indirect
	github.com/rivo/uniseg v0.2.0 // indirect
	golang.org/x/sys v0.7.0 // indirect
)
